{
	"credit": "Made with Love",
	"parent": "block/generic_block",
	"ambientocclusion": false,
	"texture_size": [64, 64],
	"textures": {
		"0": "pirate/cannon_basic",
		"particle": "pirate/cannon_basic"
	},
	"elements": [
		{
			"from": [0, 0, 0],
			"to": [16, 4, 16],
			"faces": {
				"north": {"uv": [4, 2, 8, 3], "texture": "#0"},
				"east": {"uv": [4, 2, 8, 3], "texture": "#0"},
				"south": {"uv": [4, 2, 8, 3], "texture": "#0"},
				"west": {"uv": [4, 2, 8, 3], "texture": "#0"},
				"up": {"uv": [4, 3, 8, 7], "texture": "#0"},
				"down": {"uv": [0, 0, 4, 4], "texture": "#missing"}
			}
		},
		{
			"from": [2, 4, 2],
			"to": [14, 6, 14],
			"faces": {
				"north": {"uv": [0, 2, 3, 2.5], "texture": "#0"},
				"east": {"uv": [0, 2, 3, 2.5], "texture": "#0"},
				"south": {"uv": [0, 2, 3, 2.5], "texture": "#0"},
				"west": {"uv": [0, 2, 3, 2.5], "texture": "#0"},
				"up": {"uv": [0, 2, 3, 5], "texture": "#0"},
				"down": {"uv": [0, 2, 3, 5], "texture": "#0"}
			}
		},
		{
			"from": [4, 6, -8],
			"to": [12, 14, 24],
			"rotation": {"angle": 22.5, "axis": "x", "origin": [8, 8, 8]},
			"faces": {
				"north": {"uv": [0, 0, 2, 2], "texture": "#0"},
				"east": {"uv": [10, 0, 2, 2], "texture": "#0"},
				"south": {"uv": [10, 0, 12, 2], "texture": "#0"},
				"west": {"uv": [2, 0, 10, 2], "texture": "#0"},
				"up": {"uv": [10, 2, 12, 10], "texture": "#0"},
				"down": {"uv": [8, 2, 10, 10], "texture": "#0"}
			}
		},
		{
			"from": [3, 5, 12],
			"to": [13, 15, 20],
			"rotation": {"angle": 22.5, "axis": "x", "origin": [8, 8, 8]},
			"faces": {
				"north": {"uv": [0, 9.5, 2.5, 12], "texture": "#0"},
				"east": {"uv": [0, 7, 2, 9.5], "texture": "#0"},
				"south": {"uv": [0, 9.5, 2.5, 12], "texture": "#0"},
				"west": {"uv": [2, 7, 0, 9.5], "texture": "#0"},
				"up": {"uv": [2.5, 10, 5, 12], "texture": "#0"},
				"down": {"uv": [5, 10, 7.5, 12], "texture": "#0"}
			}
		},
		{
			"from": [3, 5, 0],
			"to": [13, 15, 4],
			"rotation": {"angle": 22.5, "axis": "x", "origin": [8, 8, 8]},
			"faces": {
				"north": {"uv": [0, 9.5, 2.5, 12], "texture": "#0"},
				"east": {"uv": [0, 7, 1, 9.5], "texture": "#0"},
				"south": {"uv": [0, 9.5, 2.5, 12], "texture": "#0"},
				"west": {"uv": [1, 7, 0, 9.5], "texture": "#0"},
				"up": {"uv": [2.5, 10, 5, 11], "texture": "#0"},
				"down": {"uv": [5, 10, 7.5, 11], "texture": "#0"}
			}
		},
		{
			"from": [6, 14, 20],
			"to": [10, 16, 24],
			"rotation": {"angle": 22.5, "axis": "x", "origin": [8, 8, 8]},
			"faces": {
				"north": {"uv": [11, 11.5, 12, 12], "texture": "#0"},
				"east": {"uv": [11, 11.5, 12, 12], "texture": "#0"},
				"south": {"uv": [11, 11.5, 12, 12], "texture": "#0"},
				"west": {"uv": [11, 11.5, 12, 12], "texture": "#0"},
				"up": {"uv": [11, 10.5, 12, 11.5], "texture": "#0"},
				"down": {"uv": [1.5, 10, 2.5, 11], "texture": "#missing"}
			}
		}
	],
	"display": {
		"gui": {
			"rotation": [0, 90, 0]
		},
		"head": {
			"translation": [0, -30.5, 0],
			"scale": [1.6, 1.6, 1.6]
		}
	}
}