{
	"display": {
        "gui": {
            "rotation": [ 0, -180, 90 ],
            "translation": [ 0, 0, 0 ],
            "scale": [ 1, 1, 1 ]
        },
		"firstperson_righthand": {
			"rotation": [-30, -90, 0],
			"translation": [3, 3, -2]
	}
        },
    "parent": "item/handheld",
    "textures": {
        "layer0": "item/golden_sword"
    }
}
